…
```
## [1] FALSE
```

```r
read_xls(filename_1)
```

```
## # A tibble: 104 x 6
##    label     `INTEGRATED ALGEBRA` `GLOBAL HISTORY` `LIVING ENVIRONMENT` ENGLISH
##    <chr>                    <dbl>            <dbl>                <dbl>   <dbl>
##  1 test_year                 2010             2010                 2010    2010
##  2 Scores                  131024           113804               104201  103886
##  3 0                           56               55                   66     165
##  4 1                           NA                8                    3      69
##  5 2                            1                9                    2     237
##  6 3                           NA                3                    1     190
##  7 4                            3               15                    1     109
##  8 5                            2               11                   10     122
##  9 6                            4               29                    3     151
## 10 7                            1               37                    2     175
## # ... with 94 more rows, and 1 more variable: U.S. HISTORY <dbl>
```
…
```
## -- Column specification --------------------------------------------------------
## Delimiter: ","
## dbl (2): Year, Total carbon emissions from fossil fuel consumption and cemen...
```

```
## 
## i Use `spec()` to retrieve the full column specification for this data.
## i Specify the column types or set `show_col_types = FALSE` to quiet this message.
```

```
## # A tibble: 264 x 2
##     Year `Total carbon emissions from fossil fuel consumption and cement produc~
##    <dbl>                                                                   <dbl>
##  1  1751                                                                       3
##  2  1752                                                                       3
##  3  1753                                                                       3
##  4  1754                                                                       3
##  5  1755                                                                       3
##  6  1756                                                                       3
##  7  1757                                                                       3
##  8  1758                                                                       3
##  9  1759                                                                       3
## 10  1760                                                                       3
## # ... with 254 more rows
```
…
```
## 
## i Use `spec()` to retrieve the full column specification for this data.
## i Specify the column types or set `show_col_types = FALSE` to quiet this message.
```

```
## # A tibble: 95 x 5
##    Sun            `4.8` `5840` G2    ...5 
##    <chr>          <dbl>  <dbl> <chr> <lgl>
##  1 SiriusA          1.4   9620 A1    NA   
##  2 Canopus         -3.1   7400 F0    NA   
##  3 Arcturus        -0.4   4590 K2    NA   
##  4 AlphaCentauriA   4.3   5840 G2    NA   
##  5 Vega             0.5   9900 A0    NA   
##  6 Capella         -0.6   5150 G8    NA   
##  7 Rigel           -7.2  12140 B8    NA   
##  8 ProcyonA         2.6   6580 F5    NA   
##  9 Betelgeuse      -5.7   3200 M2    NA   
## 10 Achemar         -2.4  20500 B3    NA   
## # ... with 85 more rows
```
…
```
## -- Column specification --------------------------------------------------------
## Delimiter: ","
## chr (3): state, abb, region
## dbl (2): population, total
```

```
## 
## i Use `spec()` to retrieve the full column specification for this data.
## i Specify the column types or set `show_col_types = FALSE` to quiet this message.
```

```
## # A tibble: 51 x 5
##    state                abb   region    population total
##    <chr>                <chr> <chr>          <dbl> <dbl>
##  1 Alabama              AL    South        4779736   135
##  2 Alaska               AK    West          710231    19
##  3 Arizona              AZ    West         6392017   232
##  4 Arkansas             AR    South        2915918    93
##  5 California           CA    West        37253956  1257
##  6 Colorado             CO    West         5029196    65
##  7 Connecticut          CT    Northeast    3574097    97
##  8 Delaware             DE    South         897934    38
##  9 District of Columbia DC    South         601723    99
## 10 Florida              FL    South       19687653   669
## # ... with 41 more rows
```
…
```
## 
## i Use `spec()` to retrieve the full column specification for this data.
## i Specify the column types or set `show_col_types = FALSE` to quiet this message.
```

```
## Warning: One or more parsing issues, see `problems()` for details
```

```
## # A tibble: 572 x 11
##     ...1 Region       Area palmitic palmitoleic stearic oleic linoleic linolenic
##    <dbl> <chr>       <dbl>    <dbl>       <dbl>   <dbl> <dbl>    <dbl>     <dbl>
##  1     1 North-Apul~     1        1        1075      75   226     7823       672
##  2     2 North-Apul~     1        1        1088      73   224     7709       781
##  3     3 North-Apul~     1        1         911      54   246     8113       549
##  4     4 North-Apul~     1        1         966      57   240     7952       619
##  5     5 North-Apul~     1        1        1051      67   259     7771       672
##  6     6 North-Apul~     1        1         911      49   268     7924       678
##  7     7 North-Apul~     1        1         922      66   264     7990       618
##  8     8 North-Apul~     1        1        1100      61   235     7728       734
##  9     9 North-Apul~     1        1        1082      60   239     7745       709
## 10    10 North-Apul~     1        1        1037      55   213     7944       633
## # ... with 562 more rows, and 2 more variables: arachidic <dbl>,
## #   eicosenoic <chr>
```
…
```
## 
## i Use `spec()` to retrieve the full column specification for this data.
## i Specify the column types or set `show_col_types = FALSE` to quiet this message.
```

```
## Warning: One or more parsing issues, see `problems()` for details
```

```
## # A tibble: 14,244 x 1
##    `%PDF-1.5`                                                                   
##    <chr>                                                                        
##  1 "%\xb5\xb5\xb5\xb5"                                                          
##  2 "1 0 obj"                                                                    
##  3 "<</Type/Catalog/Pages 2 0 R/Lang(es-ES) /StructTreeRoot 32 0 R/MarkInfo<</M~
##  4 "endobj"                                                                     
##  5 "2 0 obj"                                                                    
##  6 "<</Type/Pages/Count 12/Kids[ 4 0 R 10 0 R 12 0 R 14 0 R 16 0 R 18 0 R 20 0 ~
##  7 "endobj"                                                                     
##  8 "3 0 obj"                                                                    
##  9 "<</Author(Maria M. Juiz Gallego) /CreationDate(D:20180604163453-04'00') /Mo~
## 10 "endobj"                                                                     
## # ... with 14,234 more rows
```
…
```
## -- Column specification --------------------------------------------------------
## Delimiter: ","
## chr (1): Sex
## dbl (3): Age, DeathProb, LifeExp
```

```
## 
## i Use `spec()` to retrieve the full column specification for this data.
## i Specify the column types or set `show_col_types = FALSE` to quiet this message.
```

```
## # A tibble: 240 x 5
##      Age Sex   DeathProb NumberOfLives LifeExp
##    <dbl> <chr>     <dbl>         <dbl>   <dbl>
##  1     0 Male   0.00638         100000    76.2
##  2     1 Male   0.000453         99362    75.6
##  3     2 Male   0.000282         99317    74.7
##  4     3 Male   0.00023          99289    73.7
##  5     4 Male   0.000169         99266    72.7
##  6     5 Male   0.000155         99249    71.7
##  7     6 Male   0.000145         99234    70.7
##  8     7 Male   0.000135         99219    69.7
##  9     8 Male   0.00012          99206    68.8
## 10     9 Male   0.000105         99194    67.8
## # ... with 230 more rows
```
…
```
## -- Column specification --------------------------------------------------------
## Delimiter: ","
## chr  (1): X2
## dbl (11): X1, X3, X4, X5, X6, X7, X8, X9, X10, X11, X12
```

```
## 
## i Use `spec()` to retrieve the full column specification for this data.
## i Specify the column types or set `show_col_types = FALSE` to quiet this message.
```

```
## # A tibble: 572 x 12
##       X1 X2             X3    X4    X5    X6    X7    X8    X9   X10   X11   X12
##    <dbl> <chr>       <dbl> <dbl> <dbl> <dbl> <dbl> <dbl> <dbl> <dbl> <dbl> <dbl>
##  1     1 North-Apul~     1     1  1075    75   226  7823   672    36    60    29
##  2     2 North-Apul~     1     1  1088    73   224  7709   781    31    61    29
##  3     3 North-Apul~     1     1   911    54   246  8113   549    31    63    29
##  4     4 North-Apul~     1     1   966    57   240  7952   619    50    78    35
##  5     5 North-Apul~     1     1  1051    67   259  7771   672    50    80    46
##  6     6 North-Apul~     1     1   911    49   268  7924   678    51    70    44
##  7     7 North-Apul~     1     1   922    66   264  7990   618    49    56    29
##  8     8 North-Apul~     1     1  1100    61   235  7728   734    39    64    35
##  9     9 North-Apul~     1     1  1082    60   239  7745   709    46    83    33
## 10    10 North-Apul~     1     1  1037    55   213  7944   633    26    52    30
## # ... with 562 more rows
```
…
